^F:\OPENGL\RTR-COMPUTE\01-WINDOWS\01-FIXEDFUNCTIONAL\01-CODES\03-DATA STRUCTURE\04-QUEUE\CIRCULARARRAYQUEUE\CIRCULARARRAYQUEUE\SOURCE.C
F:\OPENGL\RTR-COMPUTE\01-WINDOWS\01-FIXEDFUNCTIONAL\01-CODES\03-DATA STRUCTURE\04-QUEUE\CIRCULARARRAYQUEUE\CIRCULARARRAYQUEUE\DEBUG\VC141.PDB
F:\OPENGL\RTR-COMPUTE\01-WINDOWS\01-FIXEDFUNCTIONAL\01-CODES\03-DATA STRUCTURE\04-QUEUE\CIRCULARARRAYQUEUE\CIRCULARARRAYQUEUE\DEBUG\VC141.IDB
F:\OPENGL\RTR-COMPUTE\01-WINDOWS\01-FIXEDFUNCTIONAL\01-CODES\03-DATA STRUCTURE\04-QUEUE\CIRCULARARRAYQUEUE\CIRCULARARRAYQUEUE\DEBUG\SOURCE.OBJ
