^F:\OPENGL\RTR-COMPUTE\01-WINDOWS\01-FIXEDFUNCTIONAL\01-CODES\03-DATA STRUCTURE\02-STACK\STACK\STACK\DEBUG\STACKFIXEDARRAY.OBJ
F:\OPENGL\RTR-COMPUTE\01-WINDOWS\01-FIXEDFUNCTIONAL\01-CODES\03-DATA STRUCTURE\02-STACK\STACK\DEBUG\STACKFIXEDARRAY.EXE
F:\OPENGL\RTR-COMPUTE\01-WINDOWS\01-FIXEDFUNCTIONAL\01-CODES\03-DATA STRUCTURE\02-STACK\STACK\DEBUG\STACKFIXEDARRAY.ILK
F:\OPENGL\RTR-COMPUTE\01-WINDOWS\01-FIXEDFUNCTIONAL\01-CODES\03-DATA STRUCTURE\02-STACK\STACK\DEBUG\STACKFIXEDARRAY.PDB
